<?php
    header( "Content-type: application/json");
    
    session_start();
    if ( ! isset ( $_SESSION["loggedin"] ) ) {
      $_SESSION["loggedin"] = false;
    }
    
    $link = mysqli_connect( 'localhost', 'root', 'YOUR.PASSWORD.HERE' );
    if ( ! $link ) {
      $error_number = mysqli_connect_errno();
      $error_message = mysqli_connect_error();
      file_put_contents( "/tmp/ajax.log", "($error_number) $error_message\n", FILE_APPEND );
      http_response_code( 500 );
      exit(1);
    }
    $dbName = "Demo";
    if ( ! mysqli_select_db( $link, $dbName ) ) {
      $error_number = mysqli_errno( $link );
      $error_message = mysqli_error( $link );
      file_put_contents( "/tmp/ajax.log", "($error_number) $error_message\n", FILE_APPEND );
      http_response_code( 500 );
      exit(1);
    }
    
    switch ( $_SERVER['REQUEST_METHOD']) {
        case 'GET':
            $results = mysqli_query( $link, 'select * from shoppinglist' );
            
            if ( ! $results ) {
                $error_number = mysqli_errno( $link );
                $error_message = mysqli_error( $link );
                file_put_contents( "/tmp/ajax.log", "($error_number) $error_message\n", FILE_APPEND );
                http_response_code( 500 );
                exit(1);
            } else {
                $shoppinglist = array();
                while( $record = mysqli_fetch_assoc( $results ) ) {
                    $shoppinglist[] = $record;
                }
                mysqli_free_result( $results );
                echo json_encode( $shoppinglist );
            }
            break;
        
        case 'POST':
            if ( ! $_SESSION['loggedin'] ) {
                http_response_code( 401 );
                exit(1);
            }
            $safe_description = mysqli_real_escape_string( $link, $_REQUEST["Description"] );
            $quantity = $_REQUEST["Quantity"] + 0;
            if ( strlen( $safe_description ) <= 0 ||
                 strlen( $safe_description ) > 80 ||
                 $quantity <= 0 ) {
                file_put_contents( "/tmp/ajax.log", "Invalid Client Request\n", FILE_APPEND );
                http_response_code( 400 );
                exit(1);
            }

            $query = "INSERT INTO shoppinglist ( Quantity, Description ) VALUES ( $quantity, '$safe_description' )";
            if ( ! mysqli_query( $link, $query ) ) {
              $error_number = mysqli_errno( $link );
              $error_message = mysqli_error( $link );
              file_put_contents( "/tmp/ajax.log", "($error_number) $error_message\n", FILE_APPEND );
              http_response_code( 500 );
            }
            $record["ID"] = mysqli_insert_id( $link );
            echo json_encode( $record );
            break;
        
        case 'DELETE':
            if ( ! $_SESSION['loggedin'] ) {
                http_response_code( 401 );
                exit(1);
            }
            $ID = $_REQUEST['ID'] + 0;
            $query = "DELETE FROM shoppinglist WHERE ID=$ID";
            if ( ! mysqli_query( $link, $query ) ) {
              $error_number = mysqli_errno( $link );
              $error_message = mysqli_error( $link );
              file_put_contents( "/tmp/ajax.log", "($error_number) $error_message\n", FILE_APPEND );
              http_response_code( 500 );
            }
            break;

    }
